simres.vcd
$date
	Sat Jun 29 17:52:07 2019
$end
$version
	Icarus Verilog
$end
$timescale
	1s
$end
$scope module ProcessorTestbench $end
$var reg 1 ! clk $end
$var reg 1 " reset $end
$var integer 32 # i [31:0] $end
$scope module proc $end
$var wire 1 ! clk $end
$var wire 1 " reset $end
$var wire 32 $ writedata [31:0] $end
$var wire 32 % readdata [31:0] $end
$var wire 32 & pc [31:0] $end
$var wire 32 ' instr [31:0] $end
$var wire 1 ( datawrite $end
$var wire 32 ) dataaddr [31:0] $end
$scope module dmem $end
$var wire 6 * addr [5:0] $end
$var wire 1 ! clk $end
$var wire 32 + rd [31:0] $end
$var wire 1 ( we $end
$var wire 32 , wd [31:0] $end
$upscope $end
$scope module imem $end
$var wire 6 - addr [5:0] $end
$var wire 32 . rd [31:0] $end
$upscope $end
$scope module mips $end
$var wire 1 ! clk $end
$var wire 32 / instr [31:0] $end
$var wire 32 0 readdata [31:0] $end
$var wire 1 " reset $end
$var wire 1 1 zero $end
$var wire 32 2 writedata [31:0] $end
$var wire 1 3 regwrite $end
$var wire 32 4 pc [31:0] $end
$var wire 1 ( memwrite $end
$var wire 1 5 memtoreg $end
$var wire 1 6 lui $end
$var wire 1 7 jr $end
$var wire 1 8 dojump $end
$var wire 1 9 dojal $end
$var wire 1 : dobranch $end
$var wire 5 ; destreg [4:0] $end
$var wire 1 < alusrcbimm $end
$var wire 32 = aluout [31:0] $end
$var wire 3 > alucontrol [2:0] $end
$var wire 1 ? OrImm $end
$scope module decoder $end
$var wire 32 @ instr [31:0] $end
$var wire 1 1 zero $end
$var wire 6 A op [5:0] $end
$var wire 6 B funct [5:0] $end
$var reg 1 ? OrImm $end
$var reg 3 C alucontrol [2:0] $end
$var reg 1 < alusrcbimm $end
$var reg 5 D destreg [4:0] $end
$var reg 1 : dobranch $end
$var reg 1 9 dojal $end
$var reg 1 8 dojump $end
$var reg 1 7 jr $end
$var reg 1 6 lui $end
$var reg 1 5 memtoreg $end
$var reg 1 ( memwrite $end
$var reg 1 3 regwrite $end
$upscope $end
$scope module dp $end
$var wire 1 ? OrImm $end
$var wire 3 E alucontrol [2:0] $end
$var wire 1 < alusrcbimm $end
$var wire 1 ! clk $end
$var wire 5 F destreg [4:0] $end
$var wire 1 : dobranch $end
$var wire 1 9 dojal $end
$var wire 32 G instr [31:0] $end
$var wire 1 7 jr $end
$var wire 1 8 jump $end
$var wire 1 6 lui $end
$var wire 1 5 memtoreg $end
$var wire 32 H readdata [31:0] $end
$var wire 1 3 regwrite $end
$var wire 1 " reset $end
$var wire 32 I writedata [31:0] $end
$var wire 1 1 zero $end
$var wire 32 J srcbimm [31:0] $end
$var wire 32 K srcb [31:0] $end
$var wire 32 L srca [31:0] $end
$var wire 32 M signimm [31:0] $end
$var wire 32 N result [31:0] $end
$var wire 32 O rAddress [31:0] $end
$var wire 32 P pcresult [31:0] $end
$var wire 32 Q pc [31:0] $end
$var wire 32 R aluout [31:0] $end
$scope module alu $end
$var wire 3 S alucontrol [2:0] $end
$var wire 32 T b [31:0] $end
$var wire 32 U a [31:0] $end
$var reg 32 V hi [31:0] $end
$var reg 32 W lo [31:0] $end
$var reg 32 X result [31:0] $end
$var reg 65 Y temp [64:0] $end
$var reg 1 1 zero $end
$upscope $end
$scope module gpr $end
$var wire 1 ! clk $end
$var wire 5 Z ra1 [4:0] $end
$var wire 5 [ ra2 [4:0] $end
$var wire 5 \ wa3 [4:0] $end
$var wire 32 ] wd3 [31:0] $end
$var wire 1 3 we3 $end
$var wire 32 ^ rd3 [31:0] $end
$var wire 32 _ rd2 [31:0] $end
$var wire 32 ` rd1 [31:0] $end
$var wire 32 a newpc [31:0] $end
$upscope $end
$scope module pcenv $end
$var wire 1 ! clk $end
$var wire 1 : dobranch $end
$var wire 1 9 dojal $end
$var wire 1 8 dojump $end
$var wire 1 7 jr $end
$var wire 26 b jumptarget [25:0] $end
$var wire 32 c progcounter [31:0] $end
$var wire 32 d rAddress [31:0] $end
$var wire 1 " reset $end
$var wire 32 e pcresult [31:0] $end
$var wire 32 f nextpc [31:0] $end
$var wire 32 g incpc [31:0] $end
$var wire 32 h branchpc [31:0] $end
$var wire 32 i branchoffset [31:0] $end
$var reg 32 j pc [31:0] $end
$scope module pcbranch $end
$var wire 32 k b [31:0] $end
$var wire 1 l cin $end
$var wire 32 m y [31:0] $end
$var wire 1 n cout $end
$var wire 32 o a [31:0] $end
$upscope $end
$scope module pcinc $end
$var wire 32 p a [31:0] $end
$var wire 32 q b [31:0] $end
$var wire 1 r cin $end
$var wire 32 s y [31:0] $end
$var wire 1 t cout $end
$upscope $end
$upscope $end
$scope module se $end
$var wire 1 ? OrImm $end
$var wire 16 u a [15:0] $end
$var wire 1 6 lui $end
$var wire 32 v y [31:0] $end
$var reg 32 w out [31:0] $end
$upscope $end
$upscope $end
$upscope $end
$upscope $end
$upscope $end
$enddefinitions $end
#0
$dumpvars
b0 w
b0 v
b0 u
0t
b10000000000000000000100 s
0r
b100 q
b10000000000000000000000 p
b10000000000000000000100 o
0n
b10000000000000000000100 m
0l
b0 k
b10000000000000000000000 j
b0 i
b10000000000000000000100 h
b10000000000000000000100 g
b10000000000000000000100 f
b0 e
b0 d
b10000000000000000000000 c
b10000000000000000 b
b0 a
b0 `
b11001010111111101011101010111110 _
b0 ^
b0 ]
b1 \
b1 [
b0 Z
bx Y
b0 X
bx W
bx V
b0 U
b0 T
b10 S
b0 R
b10000000000000000000000 Q
b0 P
b0 O
b0 N
b0 M
b0 L
b11001010111111101011101010111110 K
b0 J
b11001010111111101011101010111110 I
bx H
b100100000000010000000000000000 G
b1 F
b10 E
b1 D
b10 C
b0 B
b1001 A
b100100000000010000000000000000 @
0?
b10 >
b0 =
1<
b1 ;
0:
09
08
07
06
05
b10000000000000000000000 4
13
b11001010111111101011101010111110 2
11
bx 0
b100100000000010000000000000000 /
b100100000000010000000000000000 .
b0 -
b11001010111111101011101010111110 ,
bx +
b0 *
b0 )
0(
b100100000000010000000000000000 '
b10000000000000000000000 &
bx %
b11001010111111101011101010111110 $
b100000 #
1"
1!
$end
#2
0!
#4
b0 $
b0 ,
b0 2
b0 I
b0 K
b0 _
1!
#5
0"
#6
0!
#8
01
b1 N
b1 ]
b1 )
b1 =
b1 R
b1 X
b100 k
b1 J
b1 T
b10000000000000000001000 f
b1 M
b1 i
b1 v
b1 w
b11001010111111101011101010111110 $
b11001010111111101011101010111110 ,
b11001010111111101011101010111110 2
b11001010111111101011101010111110 I
b11001010111111101011101010111110 K
b11001010111111101011101010111110 _
b10000000000000000001100 h
b10000000000000000001100 m
b10 ;
b10 D
b10 F
b10 \
b1 B
b100000000000000001 b
b1 u
b10 [
b10000000000000000001000 g
b10000000000000000001000 o
b10000000000000000001000 s
b100100000000100000000000000001 '
b100100000000100000000000000001 .
b100100000000100000000000000001 /
b100100000000100000000000000001 @
b100100000000100000000000000001 G
b1 -
b10000000000000000000100 &
b10000000000000000000100 4
b10000000000000000000100 Q
b10000000000000000000100 c
b10000000000000000000100 j
b10000000000000000000100 p
1!
#10
0!
#12
b110000010000100 k
b10000000000000000001100 f
b0 J
b0 T
b1100000100001 M
b1100000100001 i
b1100000100001 v
b1100000100001 w
b1 L
b1 U
b1 `
b1 O
b1 ^
b1 d
b10000000110000010010000 h
b10000000110000010010000 m
0<
b11 ;
b11 D
b11 F
b11 \
b0 A
b100001 B
b10000010001100000100001 b
b1100000100001 u
b10 Z
b1 [
b0 $
b0 ,
b0 2
b0 I
b0 K
b0 _
b10000000000000000001100 g
b10000000000000000001100 o
b10000000000000000001100 s
b10000010001100000100001 '
b10000010001100000100001 .
b10000010001100000100001 /
b10000010001100000100001 @
b10000010001100000100001 G
b10 -
b10000000000000000001000 &
b10000000000000000001000 4
b10000000000000000001000 Q
b10000000000000000001000 c
b10000000000000000001000 j
b10000000000000000001000 p
1!
#14
0!
#16
b10000010000100 k
b10000000000000000010000 f
b100000100001 M
b100000100001 i
b100000100001 v
b100000100001 w
b10000000010000010010100 h
b10000000010000010010100 m
b1 ;
b1 D
b1 F
b1 \
b10000000000100000100001 b
b100000100001 u
b0 [
b10000000000000000010000 g
b10000000000000000010000 o
b10000000000000000010000 s
b10000000000100000100001 '
b10000000000100000100001 .
b10000000000100000100001 /
b10000000000100000100001 @
b10000000000100000100001 G
b11 -
b10000000000000000001100 &
b10000000000000000001100 4
b10000000000000000001100 Q
b10000000000000000001100 c
b10000000000000000001100 j
b10000000000000000001100 p
1!
#18
0!
#20
b100000010000100 k
b10000000000000000010100 f
b1000000100001 M
b1000000100001 i
b1000000100001 v
b1000000100001 w
b10000000100000010011000 h
b10000000100000010011000 m
b10 ;
b10 D
b10 F
b10 \
b11000000001000000100001 b
b1000000100001 u
b11 Z
b10000000000000000010100 g
b10000000000000000010100 o
b10000000000000000010100 s
b11000000001000000100001 '
b11000000001000000100001 .
b11000000001000000100001 /
b11000000001000000100001 @
b11000000001000000100001 G
b100 -
b10000000000000000010000 &
b10000000000000000010000 4
b10000000000000000010000 Q
b10000000000000000010000 c
b10000000000000000010000 j
b10000000000000000010000 p
1!
#22
0!
#24
b11001010111111101011101010111110 N
b11001010111111101011101010111110 ]
b101111 *
b1000 k
b11001010111111101011101010111110 )
b11001010111111101011101010111110 =
b11001010111111101011101010111110 R
b11001010111111101011101010111110 X
b11001010111111101011101010111110 J
b11001010111111101011101010111110 T
b10000000000000000001000 f
b10 M
b10 i
b10 v
b10 w
b0 L
b0 U
b0 `
b0 O
b0 ^
b0 d
b11001010111111101011101010111110 $
b11001010111111101011101010111110 ,
b11001010111111101011101010111110 2
b11001010111111101011101010111110 I
b11001010111111101011101010111110 K
b11001010111111101011101010111110 _
b10000000000000000100000 h
b10000000000000000100000 m
18
bx ;
bx D
bx F
bx \
03
b10 A
b10 B
b100000000000000000010 b
b10 u
b0 Z
b10000 [
b10000000000000000011000 g
b10000000000000000011000 o
b10000000000000000011000 s
b1000000100000000000000000010 '
b1000000100000000000000000010 .
b1000000100000000000000000010 /
b1000000100000000000000000010 @
b1000000100000000000000000010 G
b101 -
b10000000000000000010100 &
b10000000000000000010100 4
b10000000000000000010100 Q
b10000000000000000010100 c
b10000000000000000010100 j
b10000000000000000010100 p
1!
#26
0!
#28
b10 N
b10 ]
b0 *
b110000010000100 k
b10 )
b10 =
b10 R
b10 X
b1 J
b1 T
b10000000000000000001100 f
b1100000100001 M
b1100000100001 i
b1100000100001 v
b1100000100001 w
b1 L
b1 U
b1 `
b1 O
b1 ^
b1 d
b1 $
b1 ,
b1 2
b1 I
b1 K
b1 _
b10000000110000010010000 h
b10000000110000010010000 m
08
b11 ;
b11 D
b11 F
b11 \
13
b0 A
b100001 B
b10000010001100000100001 b
b1100000100001 u
b10 Z
b1 [
b10000000000000000001100 g
b10000000000000000001100 o
b10000000000000000001100 s
b10000010001100000100001 '
b10000010001100000100001 .
b10000010001100000100001 /
b10000010001100000100001 @
b10000010001100000100001 G
b10 -
b10000000000000000001000 &
b10000000000000000001000 4
b10000000000000000001000 Q
b10000000000000000001000 c
b10000000000000000001000 j
b10000000000000000001000 p
1!
#30
0!
#32
b1 N
b1 ]
b1 )
b1 =
b1 R
b1 X
b10000010000100 k
b0 J
b0 T
b10000000000000000010000 f
b100000100001 M
b100000100001 i
b100000100001 v
b100000100001 w
b0 $
b0 ,
b0 2
b0 I
b0 K
b0 _
b10000000010000010010100 h
b10000000010000010010100 m
b1 ;
b1 D
b1 F
b1 \
b10000000000100000100001 b
b100000100001 u
b0 [
b10000000000000000010000 g
b10000000000000000010000 o
b10000000000000000010000 s
b10000000000100000100001 '
b10000000000100000100001 .
b10000000000100000100001 /
b10000000000100000100001 @
b10000000000100000100001 G
b11 -
b10000000000000000001100 &
b10000000000000000001100 4
b10000000000000000001100 Q
b10000000000000000001100 c
b10000000000000000001100 j
b10000000000000000001100 p
1!
#34
0!
#36
b10 N
b10 ]
b100000010000100 k
b10 )
b10 =
b10 R
b10 X
b10000000000000000010100 f
b1000000100001 M
b1000000100001 i
b1000000100001 v
b1000000100001 w
b10 L
b10 U
b10 `
b10 O
b10 ^
b10 d
b10000000100000010011000 h
b10000000100000010011000 m
b10 ;
b10 D
b10 F
b10 \
b11000000001000000100001 b
b1000000100001 u
b11 Z
b10000000000000000010100 g
b10000000000000000010100 o
b10000000000000000010100 s
b11000000001000000100001 '
b11000000001000000100001 .
b11000000001000000100001 /
b11000000001000000100001 @
b11000000001000000100001 G
b100 -
b10000000000000000010000 &
b10000000000000000010000 4
b10000000000000000010000 Q
b10000000000000000010000 c
b10000000000000000010000 j
b10000000000000000010000 p
1!
#38
0!
#40
b11001010111111101011101010111110 N
b11001010111111101011101010111110 ]
b101111 *
b1000 k
b11001010111111101011101010111110 )
b11001010111111101011101010111110 =
b11001010111111101011101010111110 R
b11001010111111101011101010111110 X
b11001010111111101011101010111110 J
b11001010111111101011101010111110 T
b10000000000000000001000 f
b10 M
b10 i
b10 v
b10 w
b0 L
b0 U
b0 `
b0 O
b0 ^
b0 d
b11001010111111101011101010111110 $
b11001010111111101011101010111110 ,
b11001010111111101011101010111110 2
b11001010111111101011101010111110 I
b11001010111111101011101010111110 K
b11001010111111101011101010111110 _
b10000000000000000100000 h
b10000000000000000100000 m
18
bx ;
bx D
bx F
bx \
03
b10 A
b10 B
b100000000000000000010 b
b10 u
b0 Z
b10000 [
b10000000000000000011000 g
b10000000000000000011000 o
b10000000000000000011000 s
b1000000100000000000000000010 '
b1000000100000000000000000010 .
b1000000100000000000000000010 /
b1000000100000000000000000010 @
b1000000100000000000000000010 G
b101 -
b10000000000000000010100 &
b10000000000000000010100 4
b10000000000000000010100 Q
b10000000000000000010100 c
b10000000000000000010100 j
b10000000000000000010100 p
1!
#42
0!
#44
b11 N
b11 ]
b0 *
b110000010000100 k
b11 )
b11 =
b11 R
b11 X
b1 J
b1 T
b10000000000000000001100 f
b1100000100001 M
b1100000100001 i
b1100000100001 v
b1100000100001 w
b10 L
b10 U
b10 `
b10 O
b10 ^
b10 d
b1 $
b1 ,
b1 2
b1 I
b1 K
b1 _
b10000000110000010010000 h
b10000000110000010010000 m
08
b11 ;
b11 D
b11 F
b11 \
13
b0 A
b100001 B
b10000010001100000100001 b
b1100000100001 u
b10 Z
b1 [
b10000000000000000001100 g
b10000000000000000001100 o
b10000000000000000001100 s
b10000010001100000100001 '
b10000010001100000100001 .
b10000010001100000100001 /
b10000010001100000100001 @
b10000010001100000100001 G
b10 -
b10000000000000000001000 &
b10000000000000000001000 4
b10000000000000000001000 Q
b10000000000000000001000 c
b10000000000000000001000 j
b10000000000000000001000 p
1!
#46
0!
#48
b10 N
b10 ]
b10 )
b10 =
b10 R
b10 X
b10000010000100 k
b0 J
b0 T
b10000000000000000010000 f
b100000100001 M
b100000100001 i
b100000100001 v
b100000100001 w
b0 $
b0 ,
b0 2
b0 I
b0 K
b0 _
b10000000010000010010100 h
b10000000010000010010100 m
b1 ;
b1 D
b1 F
b1 \
b10000000000100000100001 b
b100000100001 u
b0 [
b10000000000000000010000 g
b10000000000000000010000 o
b10000000000000000010000 s
b10000000000100000100001 '
b10000000000100000100001 .
b10000000000100000100001 /
b10000000000100000100001 @
b10000000000100000100001 G
b11 -
b10000000000000000001100 &
b10000000000000000001100 4
b10000000000000000001100 Q
b10000000000000000001100 c
b10000000000000000001100 j
b10000000000000000001100 p
1!
#50
0!
#52
b11 N
b11 ]
b100000010000100 k
b11 )
b11 =
b11 R
b11 X
b10000000000000000010100 f
b1000000100001 M
b1000000100001 i
b1000000100001 v
b1000000100001 w
b11 L
b11 U
b11 `
b11 O
b11 ^
b11 d
b10000000100000010011000 h
b10000000100000010011000 m
b10 ;
b10 D
b10 F
b10 \
b11000000001000000100001 b
b1000000100001 u
b11 Z
b10000000000000000010100 g
b10000000000000000010100 o
b10000000000000000010100 s
b11000000001000000100001 '
b11000000001000000100001 .
b11000000001000000100001 /
b11000000001000000100001 @
b11000000001000000100001 G
b100 -
b10000000000000000010000 &
b10000000000000000010000 4
b10000000000000000010000 Q
b10000000000000000010000 c
b10000000000000000010000 j
b10000000000000000010000 p
1!
#54
0!
#56
b11001010111111101011101010111110 N
b11001010111111101011101010111110 ]
b101111 *
b1000 k
b11001010111111101011101010111110 )
b11001010111111101011101010111110 =
b11001010111111101011101010111110 R
b11001010111111101011101010111110 X
b11001010111111101011101010111110 J
b11001010111111101011101010111110 T
b10000000000000000001000 f
b10 M
b10 i
b10 v
b10 w
b0 L
b0 U
b0 `
b0 O
b0 ^
b0 d
b11001010111111101011101010111110 $
b11001010111111101011101010111110 ,
b11001010111111101011101010111110 2
b11001010111111101011101010111110 I
b11001010111111101011101010111110 K
b11001010111111101011101010111110 _
b10000000000000000100000 h
b10000000000000000100000 m
18
bx ;
bx D
bx F
bx \
03
b10 A
b10 B
b100000000000000000010 b
b10 u
b0 Z
b10000 [
b10000000000000000011000 g
b10000000000000000011000 o
b10000000000000000011000 s
b1000000100000000000000000010 '
b1000000100000000000000000010 .
b1000000100000000000000000010 /
b1000000100000000000000000010 @
b1000000100000000000000000010 G
b101 -
b10000000000000000010100 &
b10000000000000000010100 4
b10000000000000000010100 Q
b10000000000000000010100 c
b10000000000000000010100 j
b10000000000000000010100 p
1!
#58
0!
#60
b101 N
b101 ]
b1 *
b110000010000100 k
b101 )
b101 =
b101 R
b101 X
b10 J
b10 T
b10000000000000000001100 f
b1100000100001 M
b1100000100001 i
b1100000100001 v
b1100000100001 w
b11 L
b11 U
b11 `
b11 O
b11 ^
b11 d
b10 $
b10 ,
b10 2
b10 I
b10 K
b10 _
b10000000110000010010000 h
b10000000110000010010000 m
08
b11 ;
b11 D
b11 F
b11 \
13
b0 A
b100001 B
b10000010001100000100001 b
b1100000100001 u
b10 Z
b1 [
b10000000000000000001100 g
b10000000000000000001100 o
b10000000000000000001100 s
b10000010001100000100001 '
b10000010001100000100001 .
b10000010001100000100001 /
b10000010001100000100001 @
b10000010001100000100001 G
b10 -
b10000000000000000001000 &
b10000000000000000001000 4
b10000000000000000001000 Q
b10000000000000000001000 c
b10000000000000000001000 j
b10000000000000000001000 p
1!
#62
0!
#64
b11 N
b11 ]
b0 *
b11 )
b11 =
b11 R
b11 X
b10000010000100 k
b0 J
b0 T
b10000000000000000010000 f
b100000100001 M
b100000100001 i
b100000100001 v
b100000100001 w
b0 $
b0 ,
b0 2
b0 I
b0 K
b0 _
b10000000010000010010100 h
b10000000010000010010100 m
b1 ;
b1 D
b1 F
b1 \
b10000000000100000100001 b
b100000100001 u
b0 [
b10000000000000000010000 g
b10000000000000000010000 o
b10000000000000000010000 s
b10000000000100000100001 '
b10000000000100000100001 .
b10000000000100000100001 /
b10000000000100000100001 @
b10000000000100000100001 G
b11 -
b10000000000000000001100 &
b10000000000000000001100 4
b10000000000000000001100 Q
b10000000000000000001100 c
b10000000000000000001100 j
b10000000000000000001100 p
1!
#66
0!
#68
b101 N
b101 ]
b1 *
b100000010000100 k
b101 )
b101 =
b101 R
b101 X
b10000000000000000010100 f
b1000000100001 M
b1000000100001 i
b1000000100001 v
b1000000100001 w
b101 L
b101 U
b101 `
b101 O
b101 ^
b101 d
b10000000100000010011000 h
b10000000100000010011000 m
b10 ;
b10 D
b10 F
b10 \
b11000000001000000100001 b
b1000000100001 u
b11 Z
b10000000000000000010100 g
b10000000000000000010100 o
b10000000000000000010100 s
b11000000001000000100001 '
b11000000001000000100001 .
b11000000001000000100001 /
b11000000001000000100001 @
b11000000001000000100001 G
b100 -
b10000000000000000010000 &
b10000000000000000010000 4
b10000000000000000010000 Q
b10000000000000000010000 c
b10000000000000000010000 j
b10000000000000000010000 p
1!
#70
0!
#72
b11001010111111101011101010111110 N
b11001010111111101011101010111110 ]
b101111 *
b1000 k
b11001010111111101011101010111110 )
b11001010111111101011101010111110 =
b11001010111111101011101010111110 R
b11001010111111101011101010111110 X
b11001010111111101011101010111110 J
b11001010111111101011101010111110 T
b10000000000000000001000 f
b10 M
b10 i
b10 v
b10 w
b0 L
b0 U
b0 `
b0 O
b0 ^
b0 d
b11001010111111101011101010111110 $
b11001010111111101011101010111110 ,
b11001010111111101011101010111110 2
b11001010111111101011101010111110 I
b11001010111111101011101010111110 K
b11001010111111101011101010111110 _
b10000000000000000100000 h
b10000000000000000100000 m
18
bx ;
bx D
bx F
bx \
03
b10 A
b10 B
b100000000000000000010 b
b10 u
b0 Z
b10000 [
b10000000000000000011000 g
b10000000000000000011000 o
b10000000000000000011000 s
b1000000100000000000000000010 '
b1000000100000000000000000010 .
b1000000100000000000000000010 /
b1000000100000000000000000010 @
b1000000100000000000000000010 G
b101 -
b10000000000000000010100 &
b10000000000000000010100 4
b10000000000000000010100 Q
b10000000000000000010100 c
b10000000000000000010100 j
b10000000000000000010100 p
1!
#74
0!
#76
b1000 N
b1000 ]
b10 *
b110000010000100 k
b1000 )
b1000 =
b1000 R
b1000 X
b11 J
b11 T
b10000000000000000001100 f
b1100000100001 M
b1100000100001 i
b1100000100001 v
b1100000100001 w
b101 L
b101 U
b101 `
b101 O
b101 ^
b101 d
b11 $
b11 ,
b11 2
b11 I
b11 K
b11 _
b10000000110000010010000 h
b10000000110000010010000 m
08
b11 ;
b11 D
b11 F
b11 \
13
b0 A
b100001 B
b10000010001100000100001 b
b1100000100001 u
b10 Z
b1 [
b10000000000000000001100 g
b10000000000000000001100 o
b10000000000000000001100 s
b10000010001100000100001 '
b10000010001100000100001 .
b10000010001100000100001 /
b10000010001100000100001 @
b10000010001100000100001 G
b10 -
b10000000000000000001000 &
b10000000000000000001000 4
b10000000000000000001000 Q
b10000000000000000001000 c
b10000000000000000001000 j
b10000000000000000001000 p
1!
#78
0!
#80
b101 N
b101 ]
b1 *
b101 )
b101 =
b101 R
b101 X
b10000010000100 k
b0 J
b0 T
b10000000000000000010000 f
b100000100001 M
b100000100001 i
b100000100001 v
b100000100001 w
b0 $
b0 ,
b0 2
b0 I
b0 K
b0 _
b10000000010000010010100 h
b10000000010000010010100 m
b1 ;
b1 D
b1 F
b1 \
b10000000000100000100001 b
b100000100001 u
b0 [
b10000000000000000010000 g
b10000000000000000010000 o
b10000000000000000010000 s
b10000000000100000100001 '
b10000000000100000100001 .
b10000000000100000100001 /
b10000000000100000100001 @
b10000000000100000100001 G
b11 -
b10000000000000000001100 &
b10000000000000000001100 4
b10000000000000000001100 Q
b10000000000000000001100 c
b10000000000000000001100 j
b10000000000000000001100 p
1!
#82
0!
#84
b1000 N
b1000 ]
b10 *
b100000010000100 k
b1000 )
b1000 =
b1000 R
b1000 X
b10000000000000000010100 f
b1000000100001 M
b1000000100001 i
b1000000100001 v
b1000000100001 w
b1000 L
b1000 U
b1000 `
b1000 O
b1000 ^
b1000 d
b10000000100000010011000 h
b10000000100000010011000 m
b10 ;
b10 D
b10 F
b10 \
b11000000001000000100001 b
b1000000100001 u
b11 Z
b10000000000000000010100 g
b10000000000000000010100 o
b10000000000000000010100 s
b11000000001000000100001 '
b11000000001000000100001 .
b11000000001000000100001 /
b11000000001000000100001 @
b11000000001000000100001 G
b100 -
b10000000000000000010000 &
b10000000000000000010000 4
b10000000000000000010000 Q
b10000000000000000010000 c
b10000000000000000010000 j
b10000000000000000010000 p
1!
#86
0!
#88
b11001010111111101011101010111110 N
b11001010111111101011101010111110 ]
b101111 *
b1000 k
b11001010111111101011101010111110 )
b11001010111111101011101010111110 =
b11001010111111101011101010111110 R
b11001010111111101011101010111110 X
b11001010111111101011101010111110 J
b11001010111111101011101010111110 T
b10000000000000000001000 f
b10 M
b10 i
b10 v
b10 w
b0 L
b0 U
b0 `
b0 O
b0 ^
b0 d
b11001010111111101011101010111110 $
b11001010111111101011101010111110 ,
b11001010111111101011101010111110 2
b11001010111111101011101010111110 I
b11001010111111101011101010111110 K
b11001010111111101011101010111110 _
b10000000000000000100000 h
b10000000000000000100000 m
18
bx ;
bx D
bx F
bx \
03
b10 A
b10 B
b100000000000000000010 b
b10 u
b0 Z
b10000 [
b10000000000000000011000 g
b10000000000000000011000 o
b10000000000000000011000 s
b1000000100000000000000000010 '
b1000000100000000000000000010 .
b1000000100000000000000000010 /
b1000000100000000000000000010 @
b1000000100000000000000000010 G
b101 -
b10000000000000000010100 &
b10000000000000000010100 4
b10000000000000000010100 Q
b10000000000000000010100 c
b10000000000000000010100 j
b10000000000000000010100 p
1!
#90
0!
#92
b1101 N
b1101 ]
b11 *
b110000010000100 k
b1101 )
b1101 =
b1101 R
b1101 X
b101 J
b101 T
b10000000000000000001100 f
b1100000100001 M
b1100000100001 i
b1100000100001 v
b1100000100001 w
b1000 L
b1000 U
b1000 `
b1000 O
b1000 ^
b1000 d
b101 $
b101 ,
b101 2
b101 I
b101 K
b101 _
b10000000110000010010000 h
b10000000110000010010000 m
08
b11 ;
b11 D
b11 F
b11 \
13
b0 A
b100001 B
b10000010001100000100001 b
b1100000100001 u
b10 Z
b1 [
b10000000000000000001100 g
b10000000000000000001100 o
b10000000000000000001100 s
b10000010001100000100001 '
b10000010001100000100001 .
b10000010001100000100001 /
b10000010001100000100001 @
b10000010001100000100001 G
b10 -
b10000000000000000001000 &
b10000000000000000001000 4
b10000000000000000001000 Q
b10000000000000000001000 c
b10000000000000000001000 j
b10000000000000000001000 p
1!
#94
0!
#96
b1000 N
b1000 ]
b10 *
b1000 )
b1000 =
b1000 R
b1000 X
b10000010000100 k
b0 J
b0 T
b10000000000000000010000 f
b100000100001 M
b100000100001 i
b100000100001 v
b100000100001 w
b0 $
b0 ,
b0 2
b0 I
b0 K
b0 _
b10000000010000010010100 h
b10000000010000010010100 m
b1 ;
b1 D
b1 F
b1 \
b10000000000100000100001 b
b100000100001 u
b0 [
b10000000000000000010000 g
b10000000000000000010000 o
b10000000000000000010000 s
b10000000000100000100001 '
b10000000000100000100001 .
b10000000000100000100001 /
b10000000000100000100001 @
b10000000000100000100001 G
b11 -
b10000000000000000001100 &
b10000000000000000001100 4
b10000000000000000001100 Q
b10000000000000000001100 c
b10000000000000000001100 j
b10000000000000000001100 p
1!
#98
0!
#100
b1101 N
b1101 ]
b11 *
b100000010000100 k
b1101 )
b1101 =
b1101 R
b1101 X
b10000000000000000010100 f
b1000000100001 M
b1000000100001 i
b1000000100001 v
b1000000100001 w
b1101 L
b1101 U
b1101 `
b1101 O
b1101 ^
b1101 d
b10000000100000010011000 h
b10000000100000010011000 m
b10 ;
b10 D
b10 F
b10 \
b11000000001000000100001 b
b1000000100001 u
b11 Z
b10000000000000000010100 g
b10000000000000000010100 o
b10000000000000000010100 s
b11000000001000000100001 '
b11000000001000000100001 .
b11000000001000000100001 /
b11000000001000000100001 @
b11000000001000000100001 G
b100 -
b10000000000000000010000 &
b10000000000000000010000 4
b10000000000000000010000 Q
b10000000000000000010000 c
b10000000000000000010000 j
b10000000000000000010000 p
1!
#102
0!
#104
b11001010111111101011101010111110 N
b11001010111111101011101010111110 ]
b101111 *
b1000 k
b11001010111111101011101010111110 )
b11001010111111101011101010111110 =
b11001010111111101011101010111110 R
b11001010111111101011101010111110 X
b11001010111111101011101010111110 J
b11001010111111101011101010111110 T
b10000000000000000001000 f
b10 M
b10 i
b10 v
b10 w
b0 L
b0 U
b0 `
b0 O
b0 ^
b0 d
b11001010111111101011101010111110 $
b11001010111111101011101010111110 ,
b11001010111111101011101010111110 2
b11001010111111101011101010111110 I
b11001010111111101011101010111110 K
b11001010111111101011101010111110 _
b10000000000000000100000 h
b10000000000000000100000 m
18
bx ;
bx D
bx F
bx \
03
b10 A
b10 B
b100000000000000000010 b
b10 u
b0 Z
b10000 [
b10000000000000000011000 g
b10000000000000000011000 o
b10000000000000000011000 s
b1000000100000000000000000010 '
b1000000100000000000000000010 .
b1000000100000000000000000010 /
b1000000100000000000000000010 @
b1000000100000000000000000010 G
b101 -
b10000000000000000010100 &
b10000000000000000010100 4
b10000000000000000010100 Q
b10000000000000000010100 c
b10000000000000000010100 j
b10000000000000000010100 p
1!
#106
0!
#108
b10101 N
b10101 ]
b101 *
b110000010000100 k
b10101 )
b10101 =
b10101 R
b10101 X
b1000 J
b1000 T
b10000000000000000001100 f
b1100000100001 M
b1100000100001 i
b1100000100001 v
b1100000100001 w
b1101 L
b1101 U
b1101 `
b1101 O
b1101 ^
b1101 d
b1000 $
b1000 ,
b1000 2
b1000 I
b1000 K
b1000 _
b10000000110000010010000 h
b10000000110000010010000 m
08
b11 ;
b11 D
b11 F
b11 \
13
b0 A
b100001 B
b10000010001100000100001 b
b1100000100001 u
b10 Z
b1 [
b10000000000000000001100 g
b10000000000000000001100 o
b10000000000000000001100 s
b10000010001100000100001 '
b10000010001100000100001 .
b10000010001100000100001 /
b10000010001100000100001 @
b10000010001100000100001 G
b10 -
b10000000000000000001000 &
b10000000000000000001000 4
b10000000000000000001000 Q
b10000000000000000001000 c
b10000000000000000001000 j
b10000000000000000001000 p
1!
#110
0!
#112
b1101 N
b1101 ]
b11 *
b1101 )
b1101 =
b1101 R
b1101 X
b10000010000100 k
b0 J
b0 T
b10000000000000000010000 f
b100000100001 M
b100000100001 i
b100000100001 v
b100000100001 w
b0 $
b0 ,
b0 2
b0 I
b0 K
b0 _
b10000000010000010010100 h
b10000000010000010010100 m
b1 ;
b1 D
b1 F
b1 \
b10000000000100000100001 b
b100000100001 u
b0 [
b10000000000000000010000 g
b10000000000000000010000 o
b10000000000000000010000 s
b10000000000100000100001 '
b10000000000100000100001 .
b10000000000100000100001 /
b10000000000100000100001 @
b10000000000100000100001 G
b11 -
b10000000000000000001100 &
b10000000000000000001100 4
b10000000000000000001100 Q
b10000000000000000001100 c
b10000000000000000001100 j
b10000000000000000001100 p
1!
#114
0!
